{
	"count": 468,
	"next": "http://localhost:8000/api/store/products/?page=2",
	"previous": null,
	"results": [
		{
			"id": 324,
			"title": {
				"id": 45,
				"titulo": "Malla Entera Combinada",
				"preguntas": "Consultas frecuentes.\n¿Tienen stock?\n- Disponemos de stock permanente.\n¿Puedo comprar varios productos y que llegue en un solo envío?\n- Se pueden realizar varios pedidos en una sola comprar para que sean enviados en un solo viaje.\n¿Cuál es el costo de envío?\n- El servicio de envío tiene un costo establecido por Mercado Envíos sujeto a la zona donde reside el comprador (Exceptuando nuestros productos destacados con envio gratis)\n¿Cambios de productos?\n- Los cambios de productos se coordinan con el asesor comercial de Hidra Sport y está sujeto a\ndisponibilidad del producto y otras variables.\nFormas de pagos.\n- Es posible pagar por Tarjeta de Crédito y Débito por Mercado Pago. Consultar siempre las\npromociones vigentes al momento de la compra.\n ¿Los productos tienen garantía?\n-Todos nuestros productos cuentan con nuestra garantía de fabrica oficial. Con la posibilidad de cambiar el producto, de padecer algún desperfecto técnico. Sujeto a revisión de nuestro departamento de garantías para posterior autorización de la entrega del nuevo producto.",
				"descripcion": "                        pendiente\n                    ",
				"info_tienda": "HIDRA SPORT\nSomos una familia de atletas emprendedores con 25 años vistiendo deportistas en las distintas disciplinas.\n- Muchas gracias por confiar en Hidra Sport"
			},
			"code": "07271005230",
			"name": "MALLA ENTERA",
			"description": "COMBINADA",
			"sex": "FEMENINO",
			"guard": "-",
			"cloth": "DRYFIT",
			"design": "LINEA",
			"size": "GRANDE",
			"weight": 545,
			"color_details": "BLANCA",
			"missing": null,
			"price": 5999.0,
			"precio_mayorista": 3899.35,
			"oferta": false,
			"bestof": false,
			"visible": false,
			"tabla_talles": "http://localhost:8000/media/images/COMBINADA-01_fst2rC1.png",
			"discount": 1.0,
			"categories": [41, 5, 18, 21, 13, 17, 15, 10]
		},
		{
			"id": 969,
			"title": {
				"id": 80,
				"titulo": "Primera Piel Protect UV Guardavidas",
				"preguntas": "Consultas frecuentes.\n¿Tienen stock?\n- Disponemos de stock permanente.\n¿Puedo comprar varios productos y que llegue en un solo envío?\n- Se pueden realizar varios pedidos en una sola comprar para que sean enviados en un solo viaje.\n¿Cuál es el costo de envío?\n- El servicio de envío tiene un costo establecido por Mercado Envíos sujeto a la zona donde reside el comprador (Exceptuando nuestros productos destacados con envio gratis)\n¿Cambios de productos?\n- Los cambios de productos se coordinan con el asesor comercial de Hidra Sport y está sujeto a\ndisponibilidad del producto y otras variables.\nFormas de pagos.\n- Es posible pagar por Tarjeta de Crédito y Débito por Mercado Pago. Consultar siempre las\npromociones vigentes al momento de la compra.\n ¿Los productos tienen garantía?\n-Todos nuestros productos cuentan con nuestra garantía de fabrica oficial. Con la posibilidad de cambiar el producto, de padecer algún desperfecto técnico. Sujeto a revisión de nuestro departamento de garantías para posterior autorización de la entrega del nuevo producto.",
				"descripcion": "pendiente",
				"info_tienda": "HIDRA SPORT\nSomos una familia de atletas emprendedores con 25 años vistiendo deportistas en las distintas disciplinas.\n- Muchas gracias por confiar en Hidra Sport"
			},
			"code": "09264207000",
			"name": "PRIMERA PIEL",
			"description": "CLASSIC M/L",
			"sex": "UNISEX",
			"guard": "GUARD+",
			"cloth": "LYCRA",
			"design": null,
			"size": null,
			"weight": 0,
			"color_details": null,
			"missing": null,
			"price": 5999.0,
			"precio_mayorista": 3899.0,
			"oferta": false,
			"bestof": false,
			"visible": false,
			"tabla_talles": "http://localhost:8000/media/images/UV_PROTECT-01.png",
			"discount": 1.0,
			"categories": [5, 31, 19, 35, 1, 16, 10]
		},
		{
			"id": 958,
			"title": {
				"id": 98,
				"titulo": "Musculosa PROMOCION",
				"preguntas": "Consultas frecuentes.\n¿Tienen stock?\n- Disponemos de stock permanente.\n¿Puedo comprar varios productos y que llegue en un solo envío?\n- Se pueden realizar varios pedidos en una sola comprar para que sean enviados en un solo viaje.\n¿Cuál es el costo de envío?\n- El servicio de envío tiene un costo establecido por Mercado Envíos sujeto a la zona donde reside el comprador (Exceptuando nuestros productos destacados con envio gratis)\n¿Cambios de productos?\n- Los cambios de productos se coordinan con el asesor comercial de Hidra Sport y está sujeto a\ndisponibilidad del producto y otras variables.\nFormas de pagos.\n- Es posible pagar por Tarjeta de Crédito y Débito por Mercado Pago. Consultar siempre las\npromociones vigentes al momento de la compra.\n ¿Los productos tienen garantía?\n-Todos nuestros productos cuentan con nuestra garantía de fabrica oficial. Con la posibilidad de cambiar el producto, de padecer algún desperfecto técnico. Sujeto a revisión de nuestro departamento de garantías para posterior autorización de la entrega del nuevo producto.",
				"descripcion": "pendiente",
				"info_tienda": "HIDRA SPORT\nSomos una familia de atletas emprendedores con 25 años vistiendo deportistas en las distintas disciplinas.\n- Muchas gracias por confiar en Hidra Sport"
			},
			"code": "08214205400",
			"name": "MUSCULOSA",
			"description": "CLASSIC",
			"sex": "UNISEX",
			"guard": "GUARD+",
			"cloth": "DRYFIT",
			"design": "SOLO TRASERO",
			"size": null,
			"weight": 0,
			"color_details": null,
			"missing": null,
			"price": 0.0,
			"precio_mayorista": 0.0,
			"oferta": false,
			"bestof": false,
			"visible": false,
			"tabla_talles": null,
			"discount": 1.0,
			"categories": []
		},
		{
			"id": 904,
			"title": {
				"id": 53,
				"titulo": "Bermuda Clásica De Mujer",
				"preguntas": "Consultas frecuentes.\n¿Tienen stock?\n- Disponemos de stock permanente.\n¿Puedo comprar varios productos y que llegue en un solo envío?\n- Se pueden realizar varios pedidos en una sola comprar para que sean enviados en un solo viaje.\n¿Cuál es el costo de envío?\n- El servicio de envío tiene un costo establecido por Mercado Envíos sujeto a la zona donde reside el comprador (Exceptuando nuestros productos destacados con envio gratis)\n¿Cambios de productos?\n- Los cambios de productos se coordinan con el asesor comercial de Hidra Sport y está sujeto a\ndisponibilidad del producto y otras variables.\nFormas de pagos.\n- Es posible pagar por Tarjeta de Crédito y Débito por Mercado Pago. Consultar siempre las\npromociones vigentes al momento de la compra.\n ¿Los productos tienen garantía?\n-Todos nuestros productos cuentan con nuestra garantía de fabrica oficial. Con la posibilidad de cambiar el producto, de padecer algún desperfecto técnico. Sujeto a revisión de nuestro departamento de garantías para posterior autorización de la entrega del nuevo producto.",
				"descripcion": "pendiente",
				"info_tienda": "HIDRA SPORT\nSomos una familia de atletas emprendedores con 25 años vistiendo deportistas en las distintas disciplinas.\n- Muchas gracias por confiar en Hidra Sport"
			},
			"code": "01121008000",
			"name": "BERMUDA",
			"description": "BERMUDA",
			"sex": "FEMENINO",
			"guard": "None",
			"cloth": null,
			"design": "None",
			"size": "INTERMEDIO",
			"weight": 100,
			"color_details": "None",
			"missing": null,
			"price": 4999.0,
			"precio_mayorista": 3249.35,
			"oferta": false,
			"bestof": true,
			"visible": false,
			"tabla_talles": "http://localhost:8000/media/images/BERMUDA_FEMENINA-01.png",
			"discount": 1.0,
			"categories": [23, 5, 18, 17, 15, 10]
		},
		{
			"id": 901,
			"title": {
				"id": 54,
				"titulo": "Bermuda New Classic Unisex",
				"preguntas": "Consultas frecuentes.\n¿Tienen stock?\n- Disponemos de stock permanente.\n¿Puedo comprar varios productos y que llegue en un solo envío?\n- Se pueden realizar varios pedidos en una sola comprar para que sean enviados en un solo viaje.\n¿Cuál es el costo de envío?\n- El servicio de envío tiene un costo establecido por Mercado Envíos sujeto a la zona donde reside el comprador (Exceptuando nuestros productos destacados con envio gratis)\n¿Cambios de productos?\n- Los cambios de productos se coordinan con el asesor comercial de Hidra Sport y está sujeto a\ndisponibilidad del producto y otras variables.\nFormas de pagos.\n- Es posible pagar por Tarjeta de Crédito y Débito por Mercado Pago. Consultar siempre las\npromociones vigentes al momento de la compra.\n ¿Los productos tienen garantía?\n-Todos nuestros productos cuentan con nuestra garantía de fabrica oficial. Con la posibilidad de cambiar el producto, de padecer algún desperfecto técnico. Sujeto a revisión de nuestro departamento de garantías para posterior autorización de la entrega del nuevo producto.",
				"descripcion": "pendiente",
				"info_tienda": "HIDRA SPORT\nSomos una familia de atletas emprendedores con 25 años vistiendo deportistas en las distintas disciplinas.\n- Muchas gracias por confiar en Hidra Sport"
			},
			"code": "01914008000",
			"name": "BERMUDA",
			"description": "NEW CLASSIC",
			"sex": "UNISEX",
			"guard": "None",
			"cloth": null,
			"design": "None",
			"size": "INTERMEDIO",
			"weight": 100,
			"color_details": "None",
			"missing": null,
			"price": 4999.0,
			"precio_mayorista": 3249.35,
			"oferta": false,
			"bestof": false,
			"visible": false,
			"tabla_talles": "http://localhost:8000/media/images/BERMUDA_NEW_CLASSIC-01.png",
			"discount": 1.0,
			"categories": [22, 15]
		},
		{
			"id": 644,
			"title": {
				"id": 152,
				"titulo": "Slip Combinado De Hombre",
				"preguntas": "Consultas frecuentes. ¿Tienen stock? - Disponemos de stock permanente. ¿Puedo comprar varios productos y que llegue en un solo envío? - Se pueden realizar varios pedidos en una sola comprar para que sean enviados en un solo viaje. ¿Cuál es el costo de envío? - El servicio de envío tiene un costo establecido por Mercado Envíos sujeto a la zona donde reside el comprador (Exceptuando nuestros productos destacados con envio gratis) ¿Cambios de productos? - Los cambios de productos se coordinan con el asesor comercial de Hidra Sport y está sujeto a disponibilidad del producto y otras variables. Formas de pagos. - Es posible pagar por Tarjeta de Crédito y Débito por Mercado Pago. Consultar siempre las promociones vigentes al momento de la compra. ¿Los productos tienen garantía? -Todos nuestros productos cuentan con nuestra garantía de fabrica oficial. Con la posibilidad de cambiar el producto, de padecer algún desperfecto técnico. Sujeto a revisión de nuestro departamento de garantías para posterior autorización de",
				"descripcion": "Pendiente",
				"info_tienda": "HIDRA SPORT Somos una familia de atletas emprendedores con 25 años vistiendo deportistas en las distintas disciplinas. - Muchas gracias por confiar en Hidra Sport"
			},
			"code": "12272005000",
			"name": "SLIP",
			"description": "COMBINADA",
			"sex": "MASCULINO",
			"guard": "-",
			"cloth": "DRYFIT",
			"design": "-",
			"size": "GRANDE",
			"weight": 545,
			"color_details": "-",
			"missing": null,
			"price": 4799.0,
			"precio_mayorista": 3119.35,
			"oferta": false,
			"bestof": false,
			"visible": false,
			"tabla_talles": "http://localhost:8000/media/images/COMBINADO-01.png",
			"discount": 1.0,
			"categories": [18, 21, 17, 24, 1, 15, 10]
		},
		{
			"id": 959,
			"title": {
				"id": 79,
				"titulo": "Remera Clásica Algodon Guardavidas",
				"preguntas": "Consultas frecuentes.\n¿Tienen stock?\n- Disponemos de stock permanente.\n¿Puedo comprar varios productos y que llegue en un solo envío?\n- Se pueden realizar varios pedidos en una sola comprar para que sean enviados en un solo viaje.\n¿Cuál es el costo de envío?\n- El servicio de envío tiene un costo establecido por Mercado Envíos sujeto a la zona donde reside el comprador (Exceptuando nuestros productos destacados con envio gratis)\n¿Cambios de productos?\n- Los cambios de productos se coordinan con el asesor comercial de Hidra Sport y está sujeto a\ndisponibilidad del producto y otras variables.\nFormas de pagos.\n- Es posible pagar por Tarjeta de Crédito y Débito por Mercado Pago. Consultar siempre las\npromociones vigentes al momento de la compra.\n ¿Los productos tienen garantía?\n-Todos nuestros productos cuentan con nuestra garantía de fabrica oficial. Con la posibilidad de cambiar el producto, de padecer algún desperfecto técnico. Sujeto a revisión de nuestro departamento de garantías para posterior autorización de la entrega del nuevo producto.",
				"descripcion": "pendiente",
				"info_tienda": "HIDRA SPORT\nSomos una familia de atletas emprendedores con 25 años vistiendo deportistas en las distintas disciplinas.\n- Muchas gracias por confiar en Hidra Sport"
			},
			"code": "10214202400",
			"name": "REMERA",
			"description": "CLASSIC",
			"sex": "UNISEX",
			"guard": "GUARD+",
			"cloth": "ALGODON",
			"design": "SOLO TRASERO",
			"size": null,
			"weight": 0,
			"color_details": null,
			"missing": null,
			"price": 3999.0,
			"precio_mayorista": 2404.35,
			"oferta": false,
			"bestof": false,
			"visible": false,
			"tabla_talles": "http://localhost:8000/media/images/GUARD-01.png",
			"discount": 1.0,
			"categories": [5, 31, 32, 19, 1, 16, 10]
		},
		{
			"id": 970,
			"title": {
				"id": 158,
				"titulo": "Remera De Argentina Guardavidas",
				"preguntas": "Consultas frecuentes. ¿Tienen stock? - Disponemos de stock permanente. ¿Puedo comprar varios productos y que llegue en un solo envío? - Se pueden realizar varios pedidos en una sola comprar para que sean enviados en un solo viaje. ¿Cuál es el costo de envío? - El servicio de envío tiene un costo establecido por Mercado Envíos sujeto a la zona donde reside el comprador (Exceptuando nuestros productos destacados con envio gratis) ¿Cambios de productos? - Los cambios de productos se coordinan con el asesor comercial de Hidra Sport y está sujeto a disponibilidad del producto y otras variables. Formas de pagos. - Es posible pagar por Tarjeta de Crédito y Débito por Mercado Pago. Consultar siempre las promociones vigentes al momento de la compra. ¿Los productos tienen garantía? -Todos nuestros productos cuentan con nuestra garantía de fabrica oficial. Con la posibilidad de cambiar el producto, de padecer algún desperfecto técnico. Sujeto a revisión de nuestro departamento de garantías para posterior autorización de",
				"descripcion": "-",
				"info_tienda": "-"
			},
			"code": "10074212000",
			"name": "REMERA",
			"description": "ARGENTINA",
			"sex": "UNISEX",
			"guard": "GUARD +",
			"cloth": "POLIESTER",
			"design": "-",
			"size": "-",
			"weight": 0,
			"color_details": "-",
			"missing": "-",
			"price": 5599.0,
			"precio_mayorista": 3699.0,
			"oferta": false,
			"bestof": true,
			"visible": true,
			"tabla_talles": "http://localhost:8000/media/images/ARG-01_UEInW8V.png",
			"discount": 1.0,
			"categories": [5, 31, 13, 1, 16, 10]
		},
		{
			"id": 708,
			"title": {
				"id": 62,
				"titulo": "Sungon Sublimado De Hombre",
				"preguntas": "Consultas frecuentes.\n¿Tienen stock?\n- Disponemos de stock permanente.\n¿Puedo comprar varios productos y que llegue en un solo envío?\n- Se pueden realizar varios pedidos en una sola comprar para que sean enviados en un solo viaje.\n¿Cuál es el costo de envío?\n- El servicio de envío tiene un costo establecido por Mercado Envíos sujeto a la zona donde reside el comprador (Exceptuando nuestros productos destacados con envio gratis)\n¿Cambios de productos?\n- Los cambios de productos se coordinan con el asesor comercial de Hidra Sport y está sujeto a\ndisponibilidad del producto y otras variables.\nFormas de pagos.\n- Es posible pagar por Tarjeta de Crédito y Débito por Mercado Pago. Consultar siempre las\npromociones vigentes al momento de la compra.\n ¿Los productos tienen garantía?\n-Todos nuestros productos cuentan con nuestra garantía de fabrica oficial. Con la posibilidad de cambiar el producto, de padecer algún desperfecto técnico. Sujeto a revisión de nuestro departamento de garantías para posterior autorización de la entrega del nuevo producto.",
				"descripcion": "pendiente",
				"info_tienda": "HIDRA SPORT\nSomos una familia de atletas emprendedores con 25 años vistiendo deportistas en las distintas disciplinas.\n- Muchas gracias por confiar en Hidra Sport"
			},
			"code": "13422013000",
			"name": "SUNGON 1 ",
			"description": "JOKER",
			"sex": "MASCULINO",
			"guard": "-",
			"cloth": "POLIESTER CON ELASTANO",
			"design": "-",
			"size": "CHICO",
			"weight": 95,
			"color_details": "-",
			"missing": null,
			"price": 4999.0,
			"precio_mayorista": 3249.35,
			"oferta": false,
			"bestof": false,
			"visible": false,
			"tabla_talles": "http://localhost:8000/media/images/BLUN_mDobRfW.png",
			"discount": 1.0,
			"categories": [18, 17, 25, 1, 15, 10]
		},
		{
			"id": 707,
			"title": {
				"id": 62,
				"titulo": "Sungon Sublimado De Hombre",
				"preguntas": "Consultas frecuentes.\n¿Tienen stock?\n- Disponemos de stock permanente.\n¿Puedo comprar varios productos y que llegue en un solo envío?\n- Se pueden realizar varios pedidos en una sola comprar para que sean enviados en un solo viaje.\n¿Cuál es el costo de envío?\n- El servicio de envío tiene un costo establecido por Mercado Envíos sujeto a la zona donde reside el comprador (Exceptuando nuestros productos destacados con envio gratis)\n¿Cambios de productos?\n- Los cambios de productos se coordinan con el asesor comercial de Hidra Sport y está sujeto a\ndisponibilidad del producto y otras variables.\nFormas de pagos.\n- Es posible pagar por Tarjeta de Crédito y Débito por Mercado Pago. Consultar siempre las\npromociones vigentes al momento de la compra.\n ¿Los productos tienen garantía?\n-Todos nuestros productos cuentan con nuestra garantía de fabrica oficial. Con la posibilidad de cambiar el producto, de padecer algún desperfecto técnico. Sujeto a revisión de nuestro departamento de garantías para posterior autorización de la entrega del nuevo producto.",
				"descripcion": "pendiente",
				"info_tienda": "HIDRA SPORT\nSomos una familia de atletas emprendedores con 25 años vistiendo deportistas en las distintas disciplinas.\n- Muchas gracias por confiar en Hidra Sport"
			},
			"code": "13322013001",
			"name": "SUNGON 1",
			"description": "ESCAMAS",
			"sex": "MASCULINO",
			"guard": "-",
			"cloth": "POLIESTER CON ELASTANO",
			"design": "-",
			"size": "CHICO",
			"weight": 95,
			"color_details": "-",
			"missing": "SIN CORDON",
			"price": 4999.0,
			"precio_mayorista": 3249.35,
			"oferta": false,
			"bestof": false,
			"visible": false,
			"tabla_talles": "http://localhost:8000/media/images/BLUN_hzgFD9j.png",
			"discount": 1.0,
			"categories": [18, 17, 25, 1, 15, 10]
		}
	]
}
